^E:\DAE projects\AI-survival\project\GPP_Exam2018.vcxproj
E:\DAE projects\AI-survival\_DEMO_DEBUG\GPP_Plugin_d.lib
E:\DAE projects\AI-survival\_DEMO_DEBUG\GPP_Plugin_d.exp
^E:\DAE projects\AI-survival\project\GPP_Exam2018.vcxproj
E:\DAE projects\AI-survival\_DEMO_DEBUG\GPP_Plugin_d.lib
E:\DAE projects\AI-survival\_DEMO_DEBUG\GPP_Plugin_d.exp
^E:\DAE projects\AI-survival\project\GPP_Exam2018.vcxproj
E:\DAE projects\AI-survival\_DEMO_DEBUG\GPP_Plugin_d.lib
E:\DAE projects\AI-survival\_DEMO_DEBUG\GPP_Plugin_d.exp
^E:\DAE projects\AI-survival\project\GPP_Exam2018.vcxproj
E:\DAE projects\AI-survival\_DEMO_DEBUG\GPP_Plugin_d.lib
E:\DAE projects\AI-survival\_DEMO_DEBUG\GPP_Plugin_d.exp
^E:\DAE projects\AI-survival\project\GPP_Exam2018.vcxproj
E:\DAE projects\AI-survival\_DEMO_DEBUG\GPP_Plugin_d.lib
E:\DAE projects\AI-survival\_DEMO_DEBUG\GPP_Plugin_d.exp
^E:\DAE projects\AI-survival\project\GPP_Exam2018.vcxproj
E:\DAE projects\AI-survival\_DEMO_DEBUG\GPP_Plugin_d.lib
E:\DAE projects\AI-survival\_DEMO_DEBUG\GPP_Plugin_d.exp
^E:\DAE projects\AI-survival\project\GPP_Exam2018.vcxproj
E:\DAE projects\AI-survival\_DEMO_DEBUG\GPP_Plugin_d.lib
E:\DAE projects\AI-survival\_DEMO_DEBUG\GPP_Plugin_d.exp
^E:\DAE projects\AI-survival\project\GPP_Exam2018.vcxproj
E:\DAE projects\AI-survival\_DEMO_DEBUG\GPP_Plugin_d.lib
E:\DAE projects\AI-survival\_DEMO_DEBUG\GPP_Plugin_d.exp
^E:\DAE projects\AI-survival\project\GPP_Exam2018.vcxproj
E:\DAE projects\AI-survival\_DEMO_DEBUG\GPP_Plugin_d.lib
E:\DAE projects\AI-survival\_DEMO_DEBUG\GPP_Plugin_d.exp
^E:\DAE projects\AI-survival\project\GPP_Exam2018.vcxproj
E:\DAE projects\AI-survival\_DEMO_DEBUG\GPP_Plugin_d.lib
E:\DAE projects\AI-survival\_DEMO_DEBUG\GPP_Plugin_d.exp
^E:\DAE projects\AI-survival\project\GPP_Exam2018.vcxproj
E:\DAE projects\AI-survival\_DEMO_DEBUG\GPP_Plugin_d.lib
E:\DAE projects\AI-survival\_DEMO_DEBUG\GPP_Plugin_d.exp
^E:\DAE projects\AI-survival\project\GPP_Exam2018.vcxproj
E:\DAE projects\AI-survival\_DEMO_DEBUG\GPP_Plugin_d.lib
E:\DAE projects\AI-survival\_DEMO_DEBUG\GPP_Plugin_d.exp
^E:\DAE projects\AI-survival\project\GPP_Exam2018.vcxproj
E:\DAE projects\AI-survival\_DEMO_DEBUG\GPP_Plugin_d.lib
E:\DAE projects\AI-survival\_DEMO_DEBUG\GPP_Plugin_d.exp
^E:\DAE projects\AI-survival\project\GPP_Exam2018.vcxproj
E:\DAE projects\AI-survival\_DEMO_DEBUG\GPP_Plugin_d.lib
E:\DAE projects\AI-survival\_DEMO_DEBUG\GPP_Plugin_d.exp
^E:\DAE projects\AI-survival\project\GPP_Exam2018.vcxproj
E:\DAE projects\AI-survival\_DEMO_DEBUG\GPP_Plugin_d.lib
E:\DAE projects\AI-survival\_DEMO_DEBUG\GPP_Plugin_d.exp
^E:\DAE projects\AI-survival\project\GPP_Exam2018.vcxproj
E:\DAE projects\AI-survival\_DEMO_DEBUG\GPP_Plugin_d.lib
E:\DAE projects\AI-survival\_DEMO_DEBUG\GPP_Plugin_d.exp
^E:\DAE projects\AI-survival\project\GPP_Exam2018.vcxproj
E:\DAE projects\AI-survival\_DEMO_DEBUG\GPP_Plugin_d.lib
E:\DAE projects\AI-survival\_DEMO_DEBUG\GPP_Plugin_d.exp
^E:\DAE projects\AI-survival\project\GPP_Exam2018.vcxproj
E:\DAE projects\AI-survival\_DEMO_DEBUG\GPP_Plugin_d.lib
E:\DAE projects\AI-survival\_DEMO_DEBUG\GPP_Plugin_d.exp
^E:\DAE projects\AI-survival\project\GPP_Exam2018.vcxproj
E:\DAE projects\AI-survival\_DEMO_DEBUG\GPP_Plugin_d.lib
E:\DAE projects\AI-survival\_DEMO_DEBUG\GPP_Plugin_d.exp
^E:\DAE projects\AI-survival\project\GPP_Exam2018.vcxproj
E:\DAE projects\AI-survival\_DEMO_DEBUG\GPP_Plugin_d.lib
E:\DAE projects\AI-survival\_DEMO_DEBUG\GPP_Plugin_d.exp
^E:\DAE projects\AI-survival\project\GPP_Exam2018.vcxproj
E:\DAE projects\AI-survival\_DEMO_DEBUG\GPP_Plugin_d.lib
E:\DAE projects\AI-survival\_DEMO_DEBUG\GPP_Plugin_d.exp
^E:\DAE projects\AI-survival\project\GPP_Exam2018.vcxproj
E:\DAE projects\AI-survival\_DEMO_DEBUG\GPP_Plugin_d.lib
E:\DAE projects\AI-survival\_DEMO_DEBUG\GPP_Plugin_d.exp
^E:\DAE projects\AI-survival\project\GPP_Exam2018.vcxproj
E:\DAE projects\AI-survival\_DEMO_DEBUG\GPP_Plugin_d.lib
E:\DAE projects\AI-survival\_DEMO_DEBUG\GPP_Plugin_d.exp
^E:\DAE projects\AI-survival\project\GPP_Exam2018.vcxproj
E:\DAE projects\AI-survival\_DEMO_DEBUG\GPP_Plugin_d.lib
E:\DAE projects\AI-survival\_DEMO_DEBUG\GPP_Plugin_d.exp
^E:\DAE projects\AI-survival\project\GPP_Exam2018.vcxproj
E:\DAE projects\AI-survival\_DEMO_DEBUG\GPP_Plugin_d.lib
E:\DAE projects\AI-survival\_DEMO_DEBUG\GPP_Plugin_d.exp
^E:\DAE projects\AI-survival\project\GPP_Exam2018.vcxproj
E:\DAE projects\AI-survival\_DEMO_DEBUG\GPP_Plugin_d.lib
E:\DAE projects\AI-survival\_DEMO_DEBUG\GPP_Plugin_d.exp
